{
	"parents" : [
		{
			"identity" : "E73F8B18-768F-4324-BE4E-DBD06DB7ADF8",
			"name" : "Amy Jo",
			"childIDS" : [
				"F557E420-1605-40ED-8824-1C9FDA42F051",
				"24BABA38-411D-46D6-B6FA-4E236EC6784B"
			]
		}
	],
	"children" : [
		{
			"identity" : "F557E420-1605-40ED-8824-1C9FDA42F051",
			"name" : "Annika"
		},
		{
			"identity" : "24BABA38-411D-46D6-B6FA-4E236EC6784B",
			"name" : "Keegan"
		}
	]	
}